{
    "title": "PropertyPortal",
    "type": "object",
    "additionalProperties": false,
    "allOf": [
        {
            "$ref": "https://static-develop.acomodeo.com/v2.2.0/schemas/property/supplier.schema.json"
        },
        {
            "type": "object",

            "required": [ "id" ],

            "properties": {
                "id": {
                    "$ref": "https://static-develop.acomodeo.com/v2.2.0/schemas/global.schema.json#/definitions/uuid"
                }
            }
        }
    ]
}
