{
    "title": "global",
    "type": "object",
    "additionalProperties": false,
    "definitions": {
        "uuid": {
            "title": "uuid",
            "type": "string",
            "minLength": 32,
            "maxLength": 32
        },
        "channelId": {
            "title": "channelId",
            "type": "object",
            "additionalProperties": false,
            "required": [
                "name",
                "id"
            ],
            "properties": {
                "channel": {
                    "type": "string"
                },
                "id": {
                    "type": "string"
                }
            }
        },
        "locationString": {
            "title": "locationString",
            "descrition": "property must be a two character iso 639-1 code",
            "type": "object",
            "additionalProperties": false,
            "patternProperties": {
                "^[a-z]{2}": {
                    "type": "string"
                }
            }
        },
        "bookableServices": {
            "title": "bookableServices",
            "type": "array",
            "items": {
                "properties": {
                    "id": {
                        "type": "string"
                    },
                    "once": {
                        "type": "integer",
                        "minimum": 0,
                        "default": 0
                    },
                    "perNight": {
                        "type": "integer",
                        "minimum": 0,
                        "default": 0
                    },
                    "perPerson": {
                        "type": "integer",
                        "minimum": 0,
                        "default": 0
                    }
                },
                "required": [ "id" ],
                "minProperties": 2,
                "additionalProperties": false
            }
        },
        "services": {
            "type": "array",
            "items": {
                "type": "string",
                "description": "Service ID"
            }
        },
        "picture": {
            "title": "picture",
            "type": "object",
            "additionalProperties": false,
            "properties": {
                "id": {
                    "type": "string"
                }
            },
            "required": [
                "id"
            ]
        },
        "pictures": {
            "type": "array",
            "additionalItems": false,
            "items": {
                "$ref": "#/definitions/picture"
            }
        }
    }
}